Machine ID,Global ID,Client ID,Service ID
Epoch,4
0,0,0,0
0,1,0,1
0,2,3,0
1,3,1,0
1,4,1,1
1,5,3,1
2,6,2,0
2,7,2,1
2,8,3,2
Epoch,3
0,0,0,0
0,1,0,1
0,2,3,0
1,3,1,0
1,4,1,1
1,5,3,1
2,6,2,0
2,7,2,1
2,8,3,2
Epoch,2
0,0,0,0
0,1,0,1
0,2,3,0
1,3,1,0
1,4,1,1
1,5,3,1
2,6,2,0
2,7,2,1
2,8,3,2
Epoch,1
0,0,0,0
0,1,0,1
0,2,3,0
1,3,1,0
1,4,1,1
1,5,3,1
2,6,2,0
2,7,2,1
2,8,3,2
Epoch,0
0,0,0,0
0,1,0,1
0,2,3,0
1,3,1,0
1,4,1,1
1,5,3,1
2,6,2,0
2,7,2,1
2,8,3,2
